[
    {
        "id": "e7b5e7c2.2a6ba8",
        "type": "tab",
        "label": "Info System",
        "disabled": false,
        "info": ""
    },
    {
        "id": "efc61e7d.04f8f",
        "type": "ui_switch",
        "z": "e7b5e7c2.2a6ba8",
        "name": "",
        "label": "Power",
        "group": "81aa0abc.669088",
        "order": 1,
        "width": "3",
        "height": "1",
        "passthru": true,
        "decouple": "false",
        "topic": "",
        "style": "",
        "onvalue": "true",
        "onvalueType": "bool",
        "onicon": "",
        "oncolor": "",
        "offvalue": "false",
        "offvalueType": "bool",
        "officon": "",
        "offcolor": "",
        "x": 730,
        "y": 220,
        "wires": [
            [
                "2a18760c.e43cba"
            ]
        ]
    },
    {
        "id": "ff043574.678dd8",
        "type": "ui_slider",
        "z": "e7b5e7c2.2a6ba8",
        "name": "Speed",
        "label": "Rotation Speed Delay",
        "group": "81aa0abc.669088",
        "order": 4,
        "width": "0",
        "height": "0",
        "passthru": true,
        "topic": "Speed",
        "min": "0",
        "max": 10,
        "step": 1,
        "x": 730,
        "y": 360,
        "wires": [
            [
                "e6ca5f2e.07ec8",
                "2f28023.07d79fe"
            ]
        ]
    },
    {
        "id": "ddc54e70.50837",
        "type": "ui_text_input",
        "z": "e7b5e7c2.2a6ba8",
        "name": "",
        "label": "input text",
        "group": "81aa0abc.669088",
        "order": 10,
        "width": "0",
        "height": "0",
        "passthru": true,
        "mode": "text",
        "delay": 300,
        "topic": "",
        "x": 720,
        "y": 660,
        "wires": [
            [
                "fce151c9.d65c4"
            ]
        ]
    },
    {
        "id": "c23d16ce.6b56b8",
        "type": "mqtt out",
        "z": "e7b5e7c2.2a6ba8",
        "name": "",
        "topic": "InfoSystem",
        "qos": "",
        "retain": "",
        "broker": "5f80702c.2e449",
        "x": 1650,
        "y": 320,
        "wires": []
    },
    {
        "id": "b90bec60.85693",
        "type": "debug",
        "z": "e7b5e7c2.2a6ba8",
        "name": "",
        "active": false,
        "tosidebar": true,
        "console": false,
        "tostatus": false,
        "complete": "false",
        "x": 1630,
        "y": 680,
        "wires": []
    },
    {
        "id": "ea8acf6.461293",
        "type": "ui_colour_picker",
        "z": "e7b5e7c2.2a6ba8",
        "name": "",
        "label": "FrontColor",
        "group": "e4a0bc6a.e67e7",
        "format": "rgb",
        "outformat": "string",
        "showSwatch": true,
        "showPicker": false,
        "showValue": false,
        "showHue": false,
        "showAlpha": false,
        "showLightness": true,
        "dynOutput": "false",
        "order": 9,
        "width": 0,
        "height": 0,
        "passthru": true,
        "topic": "",
        "x": 710,
        "y": 720,
        "wires": [
            [
                "737e8cb5.afd684"
            ]
        ]
    },
    {
        "id": "e6ca5f2e.07ec8",
        "type": "ui_text",
        "z": "e7b5e7c2.2a6ba8",
        "group": "81aa0abc.669088",
        "order": 5,
        "width": 0,
        "height": 0,
        "name": "Anz_Speed",
        "label": "",
        "format": "{{msg.payload}}",
        "layout": "row-left",
        "x": 850,
        "y": 440,
        "wires": []
    },
    {
        "id": "93ee3e78.f011",
        "type": "ui_slider",
        "z": "e7b5e7c2.2a6ba8",
        "name": "Helligkeit",
        "label": "Helligkeit",
        "group": "81aa0abc.669088",
        "order": 8,
        "width": "0",
        "height": "0",
        "passthru": true,
        "topic": "Helligkeit",
        "min": "0",
        "max": "100",
        "step": 1,
        "x": 720,
        "y": 500,
        "wires": [
            [
                "621cba56.9e8ca4",
                "26086cf8.7e5614"
            ]
        ]
    },
    {
        "id": "621cba56.9e8ca4",
        "type": "ui_text",
        "z": "e7b5e7c2.2a6ba8",
        "group": "81aa0abc.669088",
        "order": 9,
        "width": 0,
        "height": 0,
        "name": "Anz_Helligkeit",
        "label": "",
        "format": "{{msg.payload}}",
        "layout": "row-left",
        "x": 840,
        "y": 580,
        "wires": []
    },
    {
        "id": "2f28023.07d79fe",
        "type": "function",
        "z": "e7b5e7c2.2a6ba8",
        "name": "Speed",
        "func": " \n \n\nmsg.payload='speed:' + msg.payload\n\nreturn msg",
        "outputs": 1,
        "noerr": 0,
        "x": 970,
        "y": 360,
        "wires": [
            [
                "c23d16ce.6b56b8",
                "b90bec60.85693"
            ]
        ]
    },
    {
        "id": "26086cf8.7e5614",
        "type": "function",
        "z": "e7b5e7c2.2a6ba8",
        "name": "Helligkeit",
        "func": " \n \n\nmsg.payload='Brightness:' + msg.payload\n\nreturn msg",
        "outputs": 1,
        "noerr": 0,
        "x": 980,
        "y": 500,
        "wires": [
            [
                "b90bec60.85693",
                "c23d16ce.6b56b8"
            ]
        ]
    },
    {
        "id": "fce151c9.d65c4",
        "type": "function",
        "z": "e7b5e7c2.2a6ba8",
        "name": "DisplayText",
        "func": " \n \n\nmsg.payload='DisplayText:' + msg.payload\n\nreturn msg",
        "outputs": 1,
        "noerr": 0,
        "x": 970,
        "y": 660,
        "wires": [
            [
                "b90bec60.85693",
                "c23d16ce.6b56b8"
            ]
        ]
    },
    {
        "id": "737e8cb5.afd684",
        "type": "function",
        "z": "e7b5e7c2.2a6ba8",
        "name": "FrontColor",
        "func": " \n \n\nmsg.payload='FrontColor:' + msg.payload\n\nreturn msg",
        "outputs": 1,
        "noerr": 0,
        "x": 970,
        "y": 720,
        "wires": [
            [
                "b90bec60.85693",
                "c23d16ce.6b56b8"
            ]
        ]
    },
    {
        "id": "ff0d00fc.be2f",
        "type": "function",
        "z": "e7b5e7c2.2a6ba8",
        "name": "BackColor",
        "func": " \n \n\nmsg.payload='BackColor:' + msg.payload\n\nreturn msg",
        "outputs": 1,
        "noerr": 0,
        "x": 970,
        "y": 780,
        "wires": [
            [
                "b90bec60.85693",
                "c23d16ce.6b56b8"
            ]
        ]
    },
    {
        "id": "aaf3fdc0.d81fb",
        "type": "ui_colour_picker",
        "z": "e7b5e7c2.2a6ba8",
        "name": "",
        "label": "BackColor",
        "group": "e4a0bc6a.e67e7",
        "format": "rgb",
        "outformat": "string",
        "showSwatch": true,
        "showPicker": false,
        "showValue": false,
        "showHue": false,
        "showAlpha": false,
        "showLightness": true,
        "dynOutput": "false",
        "order": 9,
        "width": 0,
        "height": 0,
        "passthru": true,
        "topic": "",
        "x": 710,
        "y": 780,
        "wires": [
            [
                "ff0d00fc.be2f",
                "8e47aaed.49fd68"
            ]
        ]
    },
    {
        "id": "6fbfecd.b91a614",
        "type": "ui_slider",
        "z": "e7b5e7c2.2a6ba8",
        "name": "Position",
        "label": "Postition",
        "group": "81aa0abc.669088",
        "order": 6,
        "width": "0",
        "height": "0",
        "passthru": true,
        "topic": "Position",
        "min": "0",
        "max": "256",
        "step": 1,
        "x": 720,
        "y": 840,
        "wires": [
            [
                "1f958d1.1de5373",
                "6a9d56f0.6b84a8"
            ]
        ]
    },
    {
        "id": "1f958d1.1de5373",
        "type": "function",
        "z": "e7b5e7c2.2a6ba8",
        "name": "Position",
        "func": " \n \n\nmsg.payload='Position:' + msg.payload\n\nreturn msg",
        "outputs": 1,
        "noerr": 0,
        "x": 960,
        "y": 840,
        "wires": [
            [
                "b90bec60.85693",
                "c23d16ce.6b56b8"
            ]
        ]
    },
    {
        "id": "350af187.8e2e6e",
        "type": "ui_dropdown",
        "z": "e7b5e7c2.2a6ba8",
        "name": "",
        "label": "",
        "place": "Select option",
        "group": "81aa0abc.669088",
        "order": 3,
        "width": 0,
        "height": 0,
        "passthru": true,
        "options": [
            {
                "label": "Show Time",
                "value": "TimeTrigger:1",
                "type": "str"
            },
            {
                "label": "Show Text",
                "value": "TextTrigger:1",
                "type": "str"
            },
            {
                "label": "Countdown",
                "value": "CountdownTrigger:1",
                "type": "str"
            },
            {
                "label": "Heise News",
                "value": "NewsFeedTrigger:1",
                "type": "str"
            },
            {
                "label": "Show Projekte",
                "value": "ProjektTrigger:1",
                "type": "str"
            },
            {
                "label": "Talk Timer",
                "value": "TalkTimerTrigger:1",
                "type": "str"
            },
            {
                "label": "Nur Lampe",
                "value": "LampTrigger:1",
                "type": "str"
            }
        ],
        "payload": "",
        "topic": "",
        "x": 1480,
        "y": 500,
        "wires": [
            [
                "c23d16ce.6b56b8",
                "b90bec60.85693"
            ]
        ]
    },
    {
        "id": "2a18760c.e43cba",
        "type": "function",
        "z": "e7b5e7c2.2a6ba8",
        "name": "Power",
        "func": " \n \n\nmsg.payload='PowerTrigger:' + msg.payload\n\nreturn msg",
        "outputs": 1,
        "noerr": 0,
        "x": 950,
        "y": 220,
        "wires": [
            [
                "c23d16ce.6b56b8",
                "b90bec60.85693"
            ]
        ]
    },
    {
        "id": "6a9d56f0.6b84a8",
        "type": "ui_text",
        "z": "e7b5e7c2.2a6ba8",
        "group": "81aa0abc.669088",
        "order": 7,
        "width": 0,
        "height": 0,
        "name": "Anz_Position",
        "label": "",
        "format": "{{msg.payload}}",
        "layout": "row-left",
        "x": 850,
        "y": 920,
        "wires": []
    },
    {
        "id": "8ebb3b2b.153ca8",
        "type": "ui_button",
        "z": "e7b5e7c2.2a6ba8",
        "name": "",
        "group": "e4a0bc6a.e67e7",
        "order": 0,
        "width": 0,
        "height": 0,
        "passthru": false,
        "label": "BackColor OFF",
        "color": "",
        "bgcolor": "",
        "icon": "",
        "payload": "rgb(0, 0, 0)",
        "payloadType": "str",
        "topic": "",
        "x": 420,
        "y": 780,
        "wires": [
            [
                "aaf3fdc0.d81fb"
            ]
        ]
    },
    {
        "id": "8e47aaed.49fd68",
        "type": "debug",
        "z": "e7b5e7c2.2a6ba8",
        "name": "",
        "active": true,
        "tosidebar": true,
        "console": false,
        "tostatus": false,
        "complete": "false",
        "x": 510,
        "y": 940,
        "wires": []
    },
    {
        "id": "e2cb9fce.2b451",
        "type": "ui_button",
        "z": "e7b5e7c2.2a6ba8",
        "name": "",
        "group": "e4a0bc6a.e67e7",
        "order": 0,
        "width": 0,
        "height": 0,
        "passthru": false,
        "label": "FrontColor OFF",
        "color": "",
        "bgcolor": "",
        "icon": "",
        "payload": "rgb(0, 0, 0)",
        "payloadType": "str",
        "topic": "",
        "x": 440,
        "y": 720,
        "wires": [
            [
                "ea8acf6.461293"
            ]
        ]
    },
    {
        "id": "8a9da1a2.1a994",
        "type": "ui_button",
        "z": "e7b5e7c2.2a6ba8",
        "name": "",
        "group": "a717f12.70b921",
        "order": 2,
        "width": 0,
        "height": 0,
        "passthru": false,
        "label": "Start",
        "color": "",
        "bgcolor": "",
        "icon": "",
        "payload": "",
        "payloadType": "str",
        "topic": "",
        "x": 690,
        "y": 1060,
        "wires": [
            []
        ]
    },
    {
        "id": "d52c918e.c5901",
        "type": "ui_button",
        "z": "e7b5e7c2.2a6ba8",
        "name": "",
        "group": "a717f12.70b921",
        "order": 3,
        "width": 0,
        "height": 0,
        "passthru": false,
        "label": "Stop",
        "color": "",
        "bgcolor": "",
        "icon": "",
        "payload": "",
        "payloadType": "str",
        "topic": "",
        "x": 690,
        "y": 1100,
        "wires": [
            []
        ]
    },
    {
        "id": "e149190a.a22e08",
        "type": "ui_numeric",
        "z": "e7b5e7c2.2a6ba8",
        "name": "",
        "label": "Talk Time [min]",
        "group": "85cd3ebd.b5d59",
        "order": 1,
        "width": 0,
        "height": 0,
        "passthru": true,
        "topic": "",
        "format": "{{value}}",
        "min": 0,
        "max": "600",
        "step": 1,
        "x": 660,
        "y": 1160,
        "wires": [
            []
        ]
    },
    {
        "id": "7604feab.5e78a",
        "type": "ui_button",
        "z": "e7b5e7c2.2a6ba8",
        "name": "",
        "group": "85cd3ebd.b5d59",
        "order": 2,
        "width": 0,
        "height": 0,
        "passthru": false,
        "label": "Start",
        "color": "",
        "bgcolor": "",
        "icon": "",
        "payload": "",
        "payloadType": "str",
        "topic": "",
        "x": 690,
        "y": 1200,
        "wires": [
            []
        ]
    },
    {
        "id": "97bde1fb.6bd95",
        "type": "ui_numeric",
        "z": "e7b5e7c2.2a6ba8",
        "name": "",
        "label": "Countdown [min]",
        "group": "a717f12.70b921",
        "order": 1,
        "width": 0,
        "height": 0,
        "passthru": true,
        "topic": "",
        "format": "{{value}}",
        "min": 0,
        "max": "600",
        "step": 1,
        "x": 670,
        "y": 1020,
        "wires": [
            []
        ]
    },
    {
        "id": "2d6c2340.a9e1cc",
        "type": "link in",
        "z": "e7b5e7c2.2a6ba8",
        "name": "Aus",
        "links": [
            "1d840ccd.09c6c3"
        ],
        "x": 615,
        "y": 280,
        "wires": [
            [
                "6b36ee4f.43d79"
            ]
        ]
    },
    {
        "id": "6b36ee4f.43d79",
        "type": "change",
        "z": "e7b5e7c2.2a6ba8",
        "name": "",
        "rules": [
            {
                "t": "set",
                "p": "payload",
                "pt": "msg",
                "to": "false",
                "tot": "str"
            }
        ],
        "action": "",
        "property": "",
        "from": "",
        "to": "",
        "reg": false,
        "x": 780,
        "y": 280,
        "wires": [
            [
                "2a18760c.e43cba"
            ]
        ]
    },
    {
        "id": "fd0053f0.8edd9",
        "type": "function",
        "z": "e7b5e7c2.2a6ba8",
        "name": "Hackerman",
        "func": " \n \n\nmsg.payload='HackermanTrigger:' + msg.payload\n\nreturn msg",
        "outputs": 1,
        "noerr": 0,
        "x": 1090,
        "y": 120,
        "wires": [
            [
                "c23d16ce.6b56b8"
            ]
        ]
    },
    {
        "id": "f003705c.b9edb",
        "type": "link in",
        "z": "e7b5e7c2.2a6ba8",
        "name": "",
        "links": [
            "1c0f00a0.84751f"
        ],
        "x": 680,
        "y": 140,
        "wires": [
            [
                "d7f46bbf.ea7658"
            ]
        ]
    },
    {
        "id": "d7f46bbf.ea7658",
        "type": "switch",
        "z": "e7b5e7c2.2a6ba8",
        "name": "",
        "property": "payload",
        "propertyType": "msg",
        "rules": [
            {
                "t": "eq",
                "v": "1",
                "vt": "str"
            },
            {
                "t": "eq",
                "v": "2",
                "vt": "str"
            }
        ],
        "checkall": "true",
        "repair": false,
        "outputs": 2,
        "x": 780,
        "y": 140,
        "wires": [
            [
                "3a027465.21bfcc"
            ],
            [
                "8bd2cede.0eac7"
            ]
        ]
    },
    {
        "id": "3a027465.21bfcc",
        "type": "change",
        "z": "e7b5e7c2.2a6ba8",
        "name": "HackermanKurz",
        "rules": [
            {
                "t": "set",
                "p": "payload",
                "pt": "msg",
                "to": "40",
                "tot": "str"
            }
        ],
        "action": "",
        "property": "",
        "from": "",
        "to": "",
        "reg": false,
        "x": 920,
        "y": 80,
        "wires": [
            [
                "fd0053f0.8edd9"
            ]
        ]
    },
    {
        "id": "8bd2cede.0eac7",
        "type": "change",
        "z": "e7b5e7c2.2a6ba8",
        "name": "HackermanLang",
        "rules": [
            {
                "t": "set",
                "p": "payload",
                "pt": "msg",
                "to": "120",
                "tot": "str"
            }
        ],
        "action": "",
        "property": "",
        "from": "",
        "to": "",
        "reg": false,
        "x": 920,
        "y": 160,
        "wires": [
            [
                "fd0053f0.8edd9"
            ]
        ]
    },
    {
        "id": "81aa0abc.669088",
        "type": "ui_group",
        "z": "",
        "name": "Info System",
        "tab": "bcc05b79.433548",
        "disp": true,
        "width": "6",
        "collapse": false
    },
    {
        "id": "5f80702c.2e449",
        "type": "mqtt-broker",
        "z": "",
        "broker": "localhost",
        "port": "1883",
        "clientid": "",
        "usetls": false,
        "compatmode": true,
        "keepalive": "60",
        "cleansession": true,
        "birthTopic": "",
        "birthQos": "0",
        "birthPayload": "",
        "willTopic": "",
        "willQos": "0",
        "willPayload": ""
    },
    {
        "id": "e4a0bc6a.e67e7",
        "type": "ui_group",
        "z": "",
        "name": "Info System Color",
        "tab": "bcc05b79.433548",
        "order": 2,
        "disp": true,
        "width": "6",
        "collapse": false
    },
    {
        "id": "a717f12.70b921",
        "type": "ui_group",
        "z": "",
        "name": "Countdown",
        "tab": "bcc05b79.433548",
        "order": 3,
        "disp": true,
        "width": "6",
        "collapse": false
    },
    {
        "id": "85cd3ebd.b5d59",
        "type": "ui_group",
        "z": "",
        "name": "Talk Timer",
        "tab": "bcc05b79.433548",
        "order": 4,
        "disp": true,
        "width": "6",
        "collapse": false
    },
    {
        "id": "bcc05b79.433548",
        "type": "ui_tab",
        "z": "",
        "name": "Info System",
        "icon": "dashboard"
    }
]